\BOOKMARK [1][-]{section.1}{Problem komiwojazera \(TSP\)}{}% 1
\BOOKMARK [2][-]{subsection.1.1}{Przeglad zupe\233ny}{section.1}% 2
\BOOKMARK [2][-]{subsection.1.2}{Programowanie dynamiczne}{section.1}% 3
\BOOKMARK [3][-]{subsubsection.1.2.1}{Pseudokod}{subsection.1.2}% 4
\BOOKMARK [3][-]{subsubsection.1.2.2}{Przyk\233adowy przebieg algorytmu}{subsection.1.2}% 5
\BOOKMARK [3][-]{subsubsection.1.2.3}{Opis implementacji algorytmu}{subsection.1.2}% 6
\BOOKMARK [1][-]{section.2}{Wyniki eksperymentu}{}% 7
\BOOKMARK [2][-]{subsection.2.1}{Tabela}{section.2}% 8
\BOOKMARK [2][-]{subsection.2.2}{Wykres}{section.2}% 9
\BOOKMARK [1][-]{section.3}{Podsumowanie i wnioski}{}% 10
\BOOKMARK [1][-]{section.4}{Literatura}{}% 11
