\relax 
\providecommand\hyper@newdestlabel[2]{}
\catcode `"\active 
\providecommand\HyperFirstAtBeginDocument{\AtBeginDocument}
\HyperFirstAtBeginDocument{\ifx\hyper@anchor\@undefined
\global\let\oldcontentsline\contentsline
\gdef\contentsline#1#2#3#4{\oldcontentsline{#1}{#2}{#3}}
\global\let\oldnewlabel\newlabel
\gdef\newlabel#1#2{\newlabelxx{#1}#2}
\gdef\newlabelxx#1#2#3#4#5#6{\oldnewlabel{#1}{{#2}{#3}}}
\AtEndDocument{\ifx\hyper@anchor\@undefined
\let\contentsline\oldcontentsline
\let\newlabel\oldnewlabel
\fi}
\fi}
\global\let\hyper@last\relax 
\gdef\HyperFirstAtBeginDocument#1{#1}
\providecommand\HyField@AuxAddToFields[1]{}
\providecommand\HyField@AuxAddToCoFields[2]{}
\select@language{polish}
\@writefile{toc}{\select@language{polish}}
\@writefile{lof}{\select@language{polish}}
\@writefile{lot}{\select@language{polish}}
\select@language{polish}
\@writefile{toc}{\select@language{polish}}
\@writefile{lof}{\select@language{polish}}
\@writefile{lot}{\select@language{polish}}
\@writefile{toc}{\contentsline {section}{\numberline {1}Problem komiwoja\IeC {\.z}era (TSP)}{2}{section.1}}
\@writefile{toc}{\contentsline {subsection}{\numberline {1.1}Przegl\IeC {\k a}d zupe\IeC {\l }ny}{2}{subsection.1.1}}
\@writefile{toc}{\contentsline {subsection}{\numberline {1.2}Programowanie dynamiczne}{2}{subsection.1.2}}
\@writefile{toc}{\contentsline {subsubsection}{\numberline {1.2.1}Pseudokod}{3}{subsubsection.1.2.1}}
\@writefile{toc}{\contentsline {subsubsection}{\numberline {1.2.2}Przyk\IeC {\l }adowy przebieg algorytmu}{3}{subsubsection.1.2.2}}
\@writefile{toc}{\contentsline {subsubsection}{\numberline {1.2.3}Opis implementacji algorytmu}{5}{subsubsection.1.2.3}}
\@writefile{toc}{\contentsline {section}{\numberline {2}Wyniki eksperymentu}{5}{section.2}}
\@writefile{toc}{\contentsline {subsection}{\numberline {2.1}Tabela}{5}{subsection.2.1}}
\newlabel{my-label}{{2.1}{5}{Tabela}{subsection.2.1}{}}
\@writefile{toc}{\contentsline {subsection}{\numberline {2.2}Wykres}{6}{subsection.2.2}}
\@writefile{toc}{\contentsline {section}{\numberline {3}Podsumowanie i wnioski}{6}{section.3}}
\@writefile{toc}{\contentsline {section}{\numberline {4}Literatura}{6}{section.4}}
